{
  "canisters": {
    "crc_lib_backend": {
      "main": "src/crc_lib_backend/main.mo",
      "type": "motoko"
    },
    "crc_lib_frontend": {
      "dependencies": [
        "crc_lib_backend"
      ],
      "frontend": {
        "entrypoint": "src/crc_lib_frontend/src/index.html"
      },
      "source": [
        "src/crc_lib_frontend/assets",
        "dist/crc_lib_frontend/"
      ],
      "type": "assets"
    }
  },
  "defaults": {
    "build": {
      "args": "",
      "packtool": ""
    }
  },
  "version": 1
}